@startuml

namespace com.astro.front {

    namespace entities {
        namespace dtos {
            class EventDtoPullBasic {
            }

            class ObservationDtoPost {
            }
        }

        namespace enums {
            enum Rating {
            }
        }

        class Event {
        }

        class Observation {
        }

        class Position {
        }

        class Tag {
        }
    }

    namespace services {
        class EventService {
        }

        class ObservationService {
        }
    }

    namespace utilities {
        class MainAdapter {
        }

        class com.astro.front.utilities.MainAdapter.ViewHolder {
        }

        class Utilities {
        }
    }

    class Config {
    }

    class EventDetailsActivity {
    }

    class MainActivity {
    }

    interface com.astro.front.MainActivity.ClickListener {
    }

    class com.astro.front.MainActivity.OnItemTouchListener {
    }

    class MapActivity {
    }

    class com.astro.front.MapActivity.GenerateInfoWindowsAsyncTask {
    }

    class ObservationAddActivity {
    }

    class ObservationDetailsActivity {
    }
}

com.astro.front.Config <.up. com.astro.front.EventDetailsActivity
com.astro.front.Config <.up. com.astro.front.MainActivity
com.astro.front.Config <.up. com.astro.front.MapActivity
com.astro.front.Config <.up. com.astro.front.ObservationAddActivity
com.astro.front.Config <.up. com.astro.front.ObservationDetailsActivity
com.astro.front.Config <.. com.astro.front.utilities.Utilities

com.astro.front.EventDetailsActivity --> com.astro.front.services.EventService
com.astro.front.MainActivity --> com.astro.front.services.EventService
com.astro.front.MainActivity +-- com.astro.front.MainActivity.ClickListener
com.astro.front.MainActivity +-right- com.astro.front.MainActivity.OnItemTouchListener
com.astro.front.MainActivity.OnItemTouchListener ..> com.astro.front.MainActivity.ClickListener
com.astro.front.MainActivity --> com.astro.front.utilities.MainAdapter
com.astro.front.MapActivity --> com.astro.front.services.ObservationService
com.astro.front.MapActivity +-up- com.astro.front.MapActivity.GenerateInfoWindowsAsyncTask
com.astro.front.ObservationAddActivity --> com.astro.front.services.ObservationService
com.astro.front.ObservationDetailsActivity --> com.astro.front.services.ObservationService

com.astro.front.services.EventService --> com.astro.front.entities.Event
com.astro.front.services.EventService --> com.astro.front.entities.dtos.EventDtoPullBasic
com.astro.front.services.ObservationService --> com.astro.front.entities.Observation
com.astro.front.services.ObservationService --> com.astro.front.entities.dtos.ObservationDtoPost

com.astro.front.utilities.MainAdapter +-- com.astro.front.utilities.MainAdapter.ViewHolder

com.astro.front.entities.Event "n" o-- "n" com.astro.front.entities.Tag
com.astro.front.entities.Observation "n" o-- "1" com.astro.front.entities.Event
com.astro.front.entities.Observation "1" *-- "1" com.astro.front.entities.Position
com.astro.front.entities.Observation "n" *-- "1" com.astro.front.entities.enums.Rating
com.astro.front.entities.dtos.ObservationDtoPost "1" o-- "1" com.astro.front.entities.Event
com.astro.front.entities.dtos.ObservationDtoPost "1" *-- "1" com.astro.front.entities.Position
com.astro.front.entities.dtos.ObservationDtoPost "1" *-right- "1" com.astro.front.entities.enums.Rating
com.astro.front.entities.dtos.ObservationDtoPost ..> com.astro.front.entities.Observation

@enduml
