@startuml

namespace com.astro.front {
    namespace entities {
        namespace dtos {
            class EventDtoPullBasic {
                + id : Long?
                + title : String
                + description : String
                + isInitialized() : Boolean
            }

            class ObservationDtoPost {
                + id : Long?
                + usedId : String
                + timestamp : String
                + event : Event
                + position : Position
                + rating : Rating
                + specification : String
                + message : String
                + ObservationDtoPost(observation : Observation)
            }
        }

        namespace enums {
            enum Rating {
                FULLY_OBSERVABLE
                HARDLY_OBSERVABLE
                UNOBSERVABLE
                + toString() : String <<override>>
            }
        }

        class Event {
            + id : Long?
            + startDate : Timestamp
            + endDate : Timestamp?
            + title : String
            + description : String
            + tags : Set<Tag>
            + isInitialized() : Boolean
        }

        class Observation {
            + id : Long?
            + userId : String
            + timestamp : Timestamp
            + event : Event
            + position : Position
            + rating : Rating
            + specification : String?
            + message : String?
            + isInitialized() : Boolean
        }

        class Position {
            + id : Long?
            + longitude : Double
            + latitude : Double
            + altitude : Double
            + Position(location : SimpleLocation)
        }

        class Tag {
            + id : Long?
            + title : String
            + description : String?
            + isInitialized() : Boolean
        }
    }
}

com.astro.front.entities.Event "n" o-- "n" com.astro.front.entities.Tag
com.astro.front.entities.Observation "n" o- "1" com.astro.front.entities.Event
com.astro.front.entities.Observation "1" *-- "1" com.astro.front.entities.Position
com.astro.front.entities.Observation "n" o-- "1" com.astro.front.entities.enums.Rating

com.astro.front.entities.dtos.ObservationDtoPost ..> com.astro.front.entities.Observation

@enduml
